ST 558 Homework 5: Exploratory Data Analysis
…
The results show that there is a many-to-many relationship when we attempt to join on all of the variables. To alleviate this problem, we’ll perform an inner join using all variables that the datasets have in common except for the variables G1, G2, G3, paid, and absences. This new combined dataset will be used for subsequent analyses.

#Get the names of all variables that the two datasets have in common and remove the selected variables from the vector of names
all_vars<-intersect(names(data1),names(data2))
remove_vars <- c("G1", "G2", "G3", "paid", "absences")
remain_vars <- all_vars[!all_vars %in% remove_vars]

#Join the datasets on the remaining common variables
ad_combined <- inner_join(data1, data2, by=remain_vars)
ad_combined

# A tibble: 320 × 38
   school sex     age address famsize Pstatus  Medu  Fedu Mjob     Fjob   reason
   <chr>  <chr> <dbl> <chr>   <chr>   <chr>   <dbl> <dbl> <chr>    <chr>  <chr> 
 1 GP     F        18 U       GT3     A           4     4 at_home  teach… course
 2 GP     F        17 U       GT3     T           1     1 at_home  other  course
 3 GP     F        15 U       GT3     T           4     2 health   servi… home  
 4 GP     F        16 U       GT3     T           3     3 other    other  home  
 5 GP     M        16 U       LE3     T           4     3 services other  reput…
 6 GP     M        16 U       LE3     T           2     2 other    other  home  
 7 GP     F        17 U       GT3     A           4     4 other    teach… home  
 8 GP     M        15 U       LE3     A           3     2 services other  home  
 9 GP     M        15 U       GT3     T           3     4 other    other  home  
10 GP     F        15 U       GT3     T           4     4 teacher  health reput…
# ℹ 310 more rows
# ℹ 27 more variables: guardian <chr>, traveltime <dbl>, studytime <dbl>,
#   failures <dbl>, schoolsup <chr>, famsup <chr>, paid.x <chr>,
#   activities <chr>, nursery <chr>, higher <chr>, internet <chr>,
#   romantic <chr>, famrel <dbl>, freetime <dbl>, goout <dbl>, Dalc <dbl>,
#   Walc <dbl>, health <dbl>, absences.x <dbl>, G1.x <dbl>, G2.x <dbl>,
#   G3.x <dbl>, paid.y <chr>, absences.y <dbl>, G1.y <dbl>, G2.y <dbl>, …
…
